{
 "conversionGoals": [],
 "costControlUserSessionPercentage": 100,
 "customActionApdexSettings": {
  "frustratingFallbackThreshold": 12000,
  "frustratingThreshold": 12000,
  "toleratedFallbackThreshold": 3000,
  "toleratedThreshold": 3000
 },
 "identifier": "APPLICATION-2BE3EC2264A1E10A",
 "loadActionApdexSettings": {
  "frustratingFallbackThreshold": 3300,
  "frustratingThreshold": 3000,
  "toleratedFallbackThreshold": 1300,
  "toleratedThreshold": 1000
 },
 "loadActionKeyPerformanceMetric": "VISUALLY_COMPLETE",
 "metaDataCaptureSettings": [],
 "metadata": {
  "clusterVersion": "1.226.116.20211006-093312",
  "configurationVersions": [
   26
  ]
 },
 "monitoringSettings": {
  "addCrossOriginAnonymousAttribute": true,
  "advancedJavaScriptTagSettings": {
   "additionalEventHandlers": {
    "blurEventHandler": false,
    "changeEventHandler": false,
    "clickEventHandler": false,
    "maxDomNodesToInstrument": 5000,
    "mouseupEventHandler": false,
    "toStringMethod": false,
    "userMouseupEventForClicks": false
   },
   "eventWrapperSettings": {
    "blur": false,
    "change": false,
    "click": false,
    "mouseUp": false,
    "touchEnd": false,
    "touchStart": false
   },
   "globalEventCaptureSettings": {
    "additionalEventCapturedAsUserInput": "",
    "click": true,
    "doubleClick": true,
    "keyDown": true,
    "keyUp": true,
    "mouseDown": true,
    "mouseUp": true,
    "scroll": true
   },
   "instrumentUnsupportedAjaxFrameworks": false,
   "maxActionNameLength": 100,
   "maxErrorsToCapture": 10,
   "specialCharactersToEscape": "",
   "syncBeaconFirefox": false,
   "syncBeaconInternetExplorer": false
  },
  "cacheControlHeaderOptimizations": true,
  "contentCapture": {
   "javaScriptErrors": true,
   "resourceTimingSettings": {
    "nonW3cResourceTimings": false,
    "nonW3cResourceTimingsInstrumentationDelay": 50,
    "resourceTimingCaptureType": "CAPTURE_FULL_DETAILS",
    "resourceTimingsDomainLimit": 10,
    "w3cResourceTimings": true
   },
   "timeoutSettings": {
    "temporaryActionLimit": 0,
    "temporaryActionTotalTimeout": 100,
    "timedActionSupport": false
   },
   "visuallyComplete2Settings": null,
   "visuallyCompleteAndSpeedIndex": true
  },
  "cookiePlacementDomain": "",
  "correlationHeaderInclusionRegex": "",
  "customConfigurationProperties": "",
  "excludeXhrRegex": "",
  "fetchRequests": true,
  "injectionMode": "JAVASCRIPT_TAG",
  "javaScriptFrameworkSupport": {
   "activeXObject": false,
   "angular": true,
   "dojo": false,
   "extJS": false,
   "icefaces": false,
   "jQuery": false,
   "mooTools": false,
   "prototype": false
  },
  "libraryFileLocation": "",
  "monitoringDataPath": "",
  "scriptTagCacheDurationInHours": 1,
  "secureCookieAttribute": false,
  "serverRequestPathId": "",
  "xmlHttpRequest": true
 },
 "name": "{{.name}}",
 "realUserMonitoringEnabled": true,
 "sessionReplayConfig": {
  "costControlPercentage": 100,
  "cssResourceCapturingExclusionRules": [],
  "enableCssResourceCapturing": true,
  "enabled": false
 },
 "type": "AUTO_INJECTED",
 "userActionAndSessionProperties": [],
 "userActionNamingSettings": {
  "customActionNamingRules": [],
  "ignoreCase": true,
  "loadActionNamingRules": [],
  "placeholders": [],
  "queryParameterCleanups": [
   "cfid",
   "phpsessid",
   "__sid",
   "cftoken",
   "sid"
  ],
  "splitUserActionsByDomain": true,
  "useFirstDetectedLoadAction": false,
  "xhrActionNamingRules": []
 },
 "userTags": [],
 "waterfallSettings": {
  "resourceBrowserCachingThreshold": 50,
  "resourcesThreshold": 100000,
  "slowCdnResourcesThreshold": 200000,
  "slowFirstPartyResourcesThreshold": 200000,
  "slowThirdPartyResourcesThreshold": 200000,
  "speedIndexVisuallyCompleteRatioThreshold": 50,
  "uncompressedResourcesThreshold": 860
 },
 "xhrActionApdexSettings": {
  "frustratingFallbackThreshold": 12000,
  "frustratingThreshold": 12000,
  "toleratedFallbackThreshold": 3000,
  "toleratedThreshold": 3000
 },
 "xhrActionKeyPerformanceMetric": "VISUALLY_COMPLETE"
}