{
 "description": null,
 "entitySelectorBasedRules": [],
 "metadata": {
  "clusterVersion": "1.226.116.20211006-093312",
  "configurationVersions": [
   7
  ]
 },
 "name": "{{.name}}",
 "rules": [
  {
   "conditions": [
    {
     "comparisonInfo": {
      "caseSensitive": true,
      "negate": false,
      "operator": "EQUALS",
      "type": "STRING",
      "value": "app-one"
     },
     "key": {
      "attribute": "PROCESS_GROUP_PREDEFINED_METADATA",
      "dynamicKey": "KUBERNETES_NAMESPACE",
      "type": "PROCESS_PREDEFINED_METADATA_KEY"
     }
    }
   ],
   "enabled": true,
   "propagationTypes": [
    "PROCESS_GROUP_TO_SERVICE"
   ],
   "type": "PROCESS_GROUP",
   "valueFormat": null
  },
  {
   "conditions": [
    {
     "comparisonInfo": {
      "negate": false,
      "operator": "EQUALS",
      "type": "SERVICE_TYPE",
      "value": "DATABASE_SERVICE"
     },
     "key": {
      "attribute": "SERVICE_TYPE",
      "type": "STATIC"
     }
    }
   ],
   "enabled": true,
   "propagationTypes": [],
   "type": "SERVICE",
   "valueFormat": null
  }
 ]
}