{
 "aggregationType": "AVG",
 "alertCondition": "ABOVE",
 "dealertingSamples": 5,
 "description": "The frontend session usage is {alert_condition} the threshold of {threshold}",
 "disabledReason": "NONE",
 "enabled": true,
 "eventType": "PERFORMANCE",
 "metadata": {
  "clusterVersion": "1.226.116.20211006-093312",
  "configurationVersions": [
   6
  ]
 },
 "metricId": "builtin:tech.haproxy.fe_susage",
 "monitoringStrategy": {
  "alertCondition": "ABOVE",
  "alertingOnMissingData": false,
  "dealertingSamples": 5,
  "samples": 5,
  "threshold": 80,
  "type": "STATIC_THRESHOLD",
  "unit": "PERCENT",
  "violatingSamples": 3
 },
 "name": "{{.name}}",
 "samples": 5,
 "severity": "PERFORMANCE",
 "threshold": 80,
 "unit": "PERCENT",
 "violatingSamples": 3,
 "warningReason": "NONE"
}