{
 "aggregationType": "AVG",
 "alertCondition": "ABOVE",
 "dealertingSamples": 5,
 "description": "There are {severity} offline partitions",
 "disabledReason": "NONE",
 "enabled": false,
 "eventType": "PERFORMANCE",
 "metadata": {
  "clusterVersion": "1.226.116.20211006-093312",
  "configurationVersions": [
   6
  ]
 },
 "metricId": "builtin:tech.kafka.pg.kafka.controller.KafkaController.OfflinePartitionsCount.Value",
 "monitoringStrategy": {
  "alertCondition": "ABOVE",
  "alertingOnMissingData": false,
  "dealertingSamples": 5,
  "samples": 5,
  "threshold": 0,
  "type": "STATIC_THRESHOLD",
  "unit": "COUNT",
  "violatingSamples": 3
 },
 "name": "{{.name}}",
 "samples": 5,
 "severity": "PERFORMANCE",
 "threshold": 0,
 "unit": "COUNT",
 "violatingSamples": 3,
 "warningReason": "NONE"
}