{
 "aggregationType": "MAX",
 "alertCondition": "ABOVE",
 "dealertingSamples": 5,
 "description": "The {metricname} of {severity} is {alert_condition} the threshold of {threshold}",
 "disabledReason": "NONE",
 "enabled": true,
 "eventType": "PERFORMANCE",
 "metadata": {
  "clusterVersion": "1.226.116.20211006-093312",
  "configurationVersions": [
   6
  ]
 },
 "metricId": "builtin:tech.wso2-api-manager.metric_wso2am_https_latency_avg",
 "monitoringStrategy": {
  "alertCondition": "ABOVE",
  "alertingOnMissingData": false,
  "dealertingSamples": 5,
  "samples": 10,
  "threshold": 30000,
  "type": "STATIC_THRESHOLD",
  "unit": "MILLI_SECOND",
  "violatingSamples": 5
 },
 "name": "{{.name}}",
 "samples": 10,
 "severity": "PERFORMANCE",
 "threshold": 30000,
 "unit": "MILLI_SECOND",
 "violatingSamples": 5,
 "warningReason": "NONE"
}