{
 "metadata": {
  "clusterVersion": "1.226.116.20211006-093312",
  "configurationVersions": [
   0
  ]
 },
 "metricGroup": "tech.couchbase",
 "name": "{{.name}}",
 "properties": [
  {
   "defaultValue": "",
   "key": "port",
   "type": "STRING"
  },
  {
   "defaultValue": "",
   "key": "auth_user",
   "type": "STRING"
  },
  {
   "defaultValue": "",
   "key": "auth_password",
   "type": "PASSWORD"
  }
 ],
 "type": "ONEAGENT",
 "version": "2.20"
}