{
 "metadata": {
  "clusterVersion": "1.226.116.20211006-093312",
  "configurationVersions": [
   0
  ]
 },
 "metricGroup": "tech.jvm.servo",
 "name": "{{.name}}",
 "properties": [],
 "type": "JMX",
 "version": "1.32"
}