{
 "autoUpdateChromium": true,
 "availabilityLocationOutage": false,
 "availabilityNodeOutage": false,
 "availabilityNotificationsEnabled": true,
 "city": "Detroit",
 "countryCode": "US",
 "entityId": "SYNTHETIC_LOCATION-1C1DB15F35A5ADC6",
 "latitude": 42.3673,
 "locationNodeOutageDelayInMinutes": 3,
 "longitude": -83.1329,
 "name": "{{.name}}",
 "nodes": [
  "575344811"
 ],
 "regionCode": "MI",
 "status": "ENABLED",
 "type": "PRIVATE"
}